{
	"apps": [
		{
			"name": "DesclubAPI",
			"cwd": "/DesclubAPI",
			"script": "server/DesclubAPI.js"	,
			"node_args": ['--debug=7000'],
			"err_file"    : "/DesclubAPI/DesclubAPI.log",
    		"out_file"    : "/DesclubAPI/logs/DesclubAPI.log",
    		"log_file"    : true,
    		"log_date_format"  : "YYYY-MM-DD HH:mm Z",
		    "ignore_watch" : ["[\\/\\\\]\\./", "node_modules"],
		    "watch"       : true,
		    "watch_options": {
		      "followSymlinks": true,
		      "useFsEvents" : true,
		      "ignorePermissionErrors": true
		    },
		    "exec_mode" : "fork_mode"
		}
	]
}
